Економетрика: лабораторна робота №7
…
Результат

Поелементне входження в кластери

as.tibble(timePeriodModel_fit[kmeans.result$cluster==1,])

Warning: `as.tibble()` was deprecated in tibble 2.0.0.
ℹ Please use `as_tibble()` instead.
ℹ The signature and semantics have changed, see `?as_tibble`.

# A tibble: 38 × 15
   stock.index country  year index.price log_indexprice inflationrate oil.prices
   <chr>       <chr>   <dbl>       <dbl>          <dbl>         <dbl>      <dbl>
 1 NASDAQ      United…  2000       3784.           3.58          0.03       28.4
 2 NASDAQ      United…  2001       2035            3.31          0.03       19.4
 3 NASDAQ      United…  2002       1540.           3.19          0.02       29.5
 4 NASDAQ      United…  2003       1647.           3.22          0.02       32.1
 5 NASDAQ      United…  2004       1987.           3.3           0.03       43.2
 6 NASDAQ      United…  2005       2099.           3.32          0.03       59.4
 7 NASDAQ      United…  2006       2263.           3.35          0.03       62.0
 8 NASDAQ      United…  2007       2578.           3.41          0.03       91.7
 9 NASDAQ      United…  2008       2162.           3.33          0.04       41.1
10 FTSE 100    United…  2000       6222.           3.79          0.01       28.4
# ℹ 28 more rows
# ℹ 8 more variables: exchange_rate <dbl>, gdppercent <dbl>,
#   percapitaincome <dbl>, unemploymentrate <dbl>, manufacturingoutput <dbl>,
#   tradebalance <dbl>, USTreasury <dbl>, year_num <dbl>
…
as.tibble(timePeriodModel_fit[kmeans.result$cluster==3,])

# A tibble: 36 × 15
   stock.index country  year index.price log_indexprice inflationrate oil.prices
   <chr>       <chr>   <dbl>       <dbl>          <dbl>         <dbl>      <dbl>
 1 NASDAQ      United…  2009       1845.           3.27         0.03        74.5
 2 NASDAQ      United…  2010       2350.           3.37         0.02        89.2
 3 NASDAQ      United…  2011       2677.           3.43         0.03        98.6
 4 NASDAQ      United…  2012       2966.           3.47         0.02        87.9
 5 NASDAQ      United…  2013       3541.           3.55         0.01        97.6
 6 NASDAQ      United…  2014       4375.           3.64         0.02        59.3
 7 NASDAQ      United…  2015       4946.           3.69         0.015       37.2
 8 NASDAQ      United…  2016       4988.           3.7          0.01        52.0
 9 NASDAQ      United…  2017       6235.           3.79         0.02        57.9
10 NASDAQ      United…  2018       7426.           3.87         0.02        49.5
# ℹ 26 more rows
# ℹ 8 more variables: exchange_rate <dbl>, gdppercent <dbl>,
#   percapitaincome <dbl>, unemploymentrate <dbl>, manufacturingoutput <dbl>,
#   tradebalance <dbl>, USTreasury <dbl>, year_num <dbl>
…
